\contentsline {section}{\numberline {1}Principles of Solar Spot Detection}{2}{section.1}
\contentsline {section}{\numberline {2}Why Image Processing Papers must include Source Code, Images and Parameters }{2}{section.2}
\contentsline {section}{\numberline {3}Pointing to other material}{2}{section.3}
\contentsline {section}{\numberline {4}Software Requirements}{3}{section.4}
\contentsline {section}{\numberline {A}This is an Appendix}{3}{section.A}
