\begin{thebibliography}{1}

\bibitem{Popper1971}
K.~Popper.
\newblock {\em Open Society and Its Enemies}.
\newblock Princenton University Press, 1971.

\bibitem{Popper2002}
K.~Popper.
\newblock {\em The Logic of Scientific Discovery}.
\newblock Routledge, 2002.

\end{thebibliography}
