\relax 
\ifx\hyper@anchor\@undefined
\global \let \oldcontentsline\contentsline
\gdef \contentsline#1#2#3#4{\oldcontentsline{#1}{#2}{#3}}
\global \let \oldnewlabel\newlabel
\gdef \newlabel#1#2{\newlabelxx{#1}#2}
\gdef \newlabelxx#1#2#3#4#5#6{\oldnewlabel{#1}{{#2}{#3}}}
\AtEndDocument{\let \contentsline\oldcontentsline
\let \newlabel\oldnewlabel}
\else
\global \let \hyper@last\relax 
\fi

\citation{Popper2002}
\citation{Popper1971}
\@writefile{toc}{\contentsline {section}{\numberline {1}Principles of Solar Spot Detection}{2}{section.1}}
\@writefile{toc}{\contentsline {section}{\numberline {2}Why Image Processing Papers must include Source Code, Images and Parameters }{2}{section.2}}
\@writefile{brf}{\backcite{Popper2002,Popper1971}{{2}{2}{section.2}}}
\@writefile{toc}{\contentsline {section}{\numberline {3}Pointing to other material}{2}{section.3}}
\bibstyle{plain}
\bibdata{InsightJournal}
\bibcite{Popper1971}{1}
\@writefile{lof}{\contentsline {figure}{\numberline {1}{\ignorespaces Registration Framework Components}}{3}{figure.1}}
\newlabel{fig:RegistrationComponents}{{1}{3}{This is an Appendix\relax }{figure.1}{}}
\@writefile{toc}{\contentsline {section}{\numberline {4}Software Requirements}{3}{section.4}}
\@writefile{toc}{\contentsline {section}{\numberline {A}This is an Appendix}{3}{section.A}}
\newlabel{eqn:ShapeInfluenceTerm}{{1}{3}{This is an Appendix\relax }{equation.1}{}}
\bibcite{Popper2002}{2}
